[
    {
        "username": "greenpepper",
        "email": "Katharine@gmail.com",
        "password": "ulayjmed"
    },
    {
        "username": "applepie",
        "email": "Aneesah@gmail.com",
        "password": "cxnyczom"
    },
    {
        "username": "beetstyx",
        "email": "Hattie@gmail.com",
        "password": "tznhczci"
    },
    {
        "username": "rocknix",
        "email": "Jonas@gmail.com",
        "password": "epbtvyth"
    },
    {
        "username": "heartsun",
        "email": "Dotty @gmail.com",
        "password": "crlldsun"
    }
]

